Week 4a
…
---
# filter only the female penguins
### As always, exact spelling and capitalization matters

After filtering

```r
filter(.data = penguins, sex == "female" )
```

```
## # A tibble: 165 x 8
##    species island bill_length_mm bill_depth_mm flipper_length_~ body_mass_g sex  
##    <fct>   <fct>           <dbl>         <dbl>            <int>       <int> <fct>
##  1 Adelie  Torge~           39.5          17.4              186        3800 fema~
##  2 Adelie  Torge~           40.3          18                195        3250 fema~
##  3 Adelie  Torge~           36.7          19.3              193        3450 fema~
##  4 Adelie  Torge~           38.9          17.8              181        3625 fema~
##  5 Adelie  Torge~           41.1          17.6              182        3200 fema~
##  6 Adelie  Torge~           36.6          17.8              185        3700 fema~
##  7 Adelie  Torge~           38.7          19                195        3450 fema~
##  8 Adelie  Torge~           34.4          18.4              184        3325 fema~
##  9 Adelie  Biscoe           37.8          18.3              174        3400 fema~
## 10 Adelie  Biscoe           35.9          19.2              189        3800 fema~
## # ... with 155 more rows, and 1 more variable: year <int>
```
…
]

---

# Filter with multiple conditions

Select .orange[females] that are also .green[greater than 4000 g]

```r
filter(.data = penguins, sex == "female", body_mass_g >4000)
```

```
## # A tibble: 58 x 8
##    species island bill_length_mm bill_depth_mm flipper_length_~ body_mass_g sex  
##    <fct>   <fct>           <dbl>         <dbl>            <int>       <int> <fct>
##  1 Gentoo  Biscoe           46.1          13.2              211        4500 fema~
##  2 Gentoo  Biscoe           48.7          14.1              210        4450 fema~
##  3 Gentoo  Biscoe           46.5          13.5              210        4550 fema~
##  4 Gentoo  Biscoe           45.4          14.6              211        4800 fema~
##  5 Gentoo  Biscoe           43.3          13.4              209        4400 fema~
##  6 Gentoo  Biscoe           40.9          13.7              214        4650 fema~
##  7 Gentoo  Biscoe           45.5          13.7              214        4650 fema~
##  8 Gentoo  Biscoe           45.8          14.6              210        4200 fema~
##  9 Gentoo  Biscoe           42            13.5              210        4150 fema~
## 10 Gentoo  Biscoe           46.2          14.5              209        4800 fema~
## # ... with 48 more rows, and 1 more variable: year <int>
```
…
---
# %>%

Filter only female penguins and add a new column that calculates the log body mass  
When you use %>% the dataframe carries over so you don't need to write it out anymore

```r
penguins %>% # use penguin dataframe
  filter(sex == "female") %>% #select females
  mutate(log_mass = log(body_mass_g)) #calculate log biomass
```

```
## # A tibble: 165 x 9
##    species island bill_length_mm bill_depth_mm flipper_length_~ body_mass_g sex  
##    <fct>   <fct>           <dbl>         <dbl>            <int>       <int> <fct>
##  1 Adelie  Torge~           39.5          17.4              186        3800 fema~
##  2 Adelie  Torge~           40.3          18                195        3250 fema~
##  3 Adelie  Torge~           36.7          19.3              193        3450 fema~
##  4 Adelie  Torge~           38.9          17.8              181        3625 fema~
##  5 Adelie  Torge~           41.1          17.6              182        3200 fema~
##  6 Adelie  Torge~           36.6          17.8              185        3700 fema~
##  7 Adelie  Torge~           38.7          19                195        3450 fema~
##  8 Adelie  Torge~           34.4          18.4              184        3325 fema~
##  9 Adelie  Biscoe           37.8          18.3              174        3400 fema~
## 10 Adelie  Biscoe           35.9          19.2              189        3800 fema~
## # ... with 155 more rows, and 2 more variables: year <int>, log_mass <dbl>
```

---
# Select

Use select() to select certain columns to remain in the dataframe

```r
penguins %>% # use penguin dataframe
  filter(sex == "female") %>% #select females
  mutate(log_mass = log(body_mass_g)) %>% #calculate log biomass
  select(species, island, sex, log_mass)
```

```
## # A tibble: 165 x 4
##    species island    sex    log_mass
##    <fct>   <fct>     <fct>     <dbl>
##  1 Adelie  Torgersen female     8.24
##  2 Adelie  Torgersen female     8.09
##  3 Adelie  Torgersen female     8.15
##  4 Adelie  Torgersen female     8.20
##  5 Adelie  Torgersen female     8.07
##  6 Adelie  Torgersen female     8.22
##  7 Adelie  Torgersen female     8.15
##  8 Adelie  Torgersen female     8.11
##  9 Adelie  Biscoe    female     8.13
## 10 Adelie  Biscoe    female     8.24
## # ... with 155 more rows
```
---
# Select

You can also use select() to rename columns.  
Here, we are renaming species to have a capital S

```r
penguins %>% # use penguin dataframe
  filter(sex == "female") %>% #select females
  mutate(log_mass = log(body_mass_g)) %>% #calculate log biomass
  select(Species = species, island, sex, log_mass)
```

```
## # A tibble: 165 x 4
##    Species island    sex    log_mass
##    <fct>   <fct>     <fct>     <dbl>
##  1 Adelie  Torgersen female     8.24
##  2 Adelie  Torgersen female     8.09
##  3 Adelie  Torgersen female     8.15
##  4 Adelie  Torgersen female     8.20
##  5 Adelie  Torgersen female     8.07
##  6 Adelie  Torgersen female     8.22
##  7 Adelie  Torgersen female     8.15
##  8 Adelie  Torgersen female     8.11
##  9 Adelie  Biscoe    female     8.13
## 10 Adelie  Biscoe    female     8.24
## # ... with 155 more rows
```
…
---
# remove NAs

drop_na() 
  - drops rows with NAs from a specific column

drop all the rows that are missing data on sex

```r
penguins %>%
* drop_na(sex)
```

```
## # A tibble: 333 x 8
##    species island bill_length_mm bill_depth_mm flipper_length_~ body_mass_g sex  
##    <fct>   <fct>           <dbl>         <dbl>            <int>       <int> <fct>
##  1 Adelie  Torge~           39.1          18.7              181        3750 male 
##  2 Adelie  Torge~           39.5          17.4              186        3800 fema~
##  3 Adelie  Torge~           40.3          18                195        3250 fema~
##  4 Adelie  Torge~           36.7          19.3              193        3450 fema~
##  5 Adelie  Torge~           39.3          20.6              190        3650 male 
##  6 Adelie  Torge~           38.9          17.8              181        3625 fema~
##  7 Adelie  Torge~           39.2          19.6              195        4675 male 
##  8 Adelie  Torge~           41.1          17.6              182        3200 fema~
##  9 Adelie  Torge~           38.6          21.2              191        3800 male 
## 10 Adelie  Torge~           34.6          21.1              198        4400 male 
## # ... with 323 more rows, and 1 more variable: year <int>
```
…
